*** Darwin 1x9 ***
Turn = 0.
  012345678
0 fttftrrrf

*** Darwin 19x5 ***
Turn = 0.
  01234
0 ..t.t
1 ....t
2 h...f
3 r.f.r
4 ht...
5 .fr.r
6 rft..
7 .f...
8 ht.t.
9 r..hr
0 .h...
1 f.tr.
2 ....t
3 t.htt
4 .trh.
5 t....
6 rrfh.
7 .r.r.
8 .tth.

*** Darwin 2x2 ***
Turn = 0.
  01
0 th
1 tt

Turn = 3.
  01
0 tt
1 tt

Turn = 6.
  01
0 tt
1 tt

Turn = 9.
  01
0 tt
1 tt

*** Darwin 6x6 ***
Turn = 0.
  012345
0 .r.tt.
1 ......
2 .f..th
3 .f....
4 ....h.
5 h.....

Turn = 7.
  012345
0 h...rr
1 ......
2 .f..rr
3 .f....
4 h..r..
5 ......

*** Darwin 13x12 ***
Turn = 0.
  012345678901
0 .....t..ftfh
1 .t.....t....
2 f..hrrth....
3 ....t.......
4 .h.hr.....r.
5 ............
6 .....rf.....
7 ..h...r.....
8 .h.........f
9 f.r...rrrfhf
0 .....r.f.h..
1 ....t....h..
2 ..........t.

Turn = 1.
  012345678901
0 .....t..ftfh
1 .t..rr.t....
2 f..h..th....
3 .h..t.......
4 ..h.t....r..
5 ............
6 ......f.....
7 .h...r......
8 ..h...r....f
9 fr....rrrrhf
0 ....r..fr...
1 ....t...h...
2 ..........t.

Turn = 2.
  012345678901
0 ....rr..ftth
1 .t...r.t....
2 fh..h.tt....
3 ....t.......
4 .h..t...r...
5 ............
6 .h....f.....
7 ............
8 .....rr....f
9 rrh....rrh.f
0 ...r..rrrr..
1 ....t..h....
2 ..........t.

Turn = 3.
  012345678901
0 ....rr..fttt
1 .t...r.t....
2 ft...htt....
3 ....t.......
4 h...t..r....
5 .h..........
6 ......f.....
7 ............
8 r....r.....f
9 r....r.rrh.f
0 ..rr...rr...
1 ....t.rr.r..
2 ..........t.

Turn = 4.
  012345678901
0 ...r..r.fttt
1 .t....rt....
2 tt...htt....
3 ....t.......
4 hh..t.r.....
5 ............
6 ......f.....
7 r...........
8 ....r......f
9 r.....r.rr.f
0 ..r..r.r.r..
1 ..r.t.......
2 ......rr.rt.

Turn = 5.
  012345678901
0 ..r....rtttt
1 .t....tr....
2 tt...htt....
3 .h..t.......
4 h...tr......
5 ............
6 r.....f.....
7 ............
8 r..r.....r.f
9 .....r..r..f
0 .r......r.r.
1 ....tt......
2 ..r...rr.rt.

Turn = 6.
  012345678901
0 .t.....rtttt
1 .t....tt....
2 tt...htt....
3 .t..t.......
4 h...tt......
5 r...........
6 ......f.....
7 r........r..
8 ..r.....r..f
9 ....r......f
0 r........r.r
1 ....tt......
2 ..r...r.rtt.

Turn = 7.
  012345678901
0 .t.....r.ttt
1 .t....ttr...
2 tt...ttt....
3 .t..t.......
4 r...tt......
5 r...........
6 r.....f..r..
7 ........r...
8 .r.........f
9 ...r.......f
0 r.........rr
1 ....tt......
2 .r....r.rtt.

*** Darwin 15x1 ***
Turn = 0.
  0
0 r
1 h
2 h
3 r
4 t
5 r
6 h
7 h
8 t
9 t
0 h
1 f
2 t
3 h
4 t

Turn = 10.
  0
0 r
1 r
2 r
3 t
4 t
5 t
6 t
7 t
8 t
9 t
0 t
1 t
2 t
3 t
4 t

*** Darwin 4x1 ***
Turn = 0.
  0
0 f
1 t
2 t
3 t

Turn = 6.
  0
0 t
1 t
2 t
3 t

*** Darwin 9x20 ***
Turn = 0.
  01234567890123456789
0 ...r.r..rf.......f..
1 .f.............f.f..
2 ..frh.h..h.ft......r
3 .r...r.....h.th..f..
4 ..r....rh.rf...r..r.
5 h.....rfh.......f...
6 r.........r..f..f...
7 .h.rf....h...rr.rh..
8 ....f..tt.t..r....f.

Turn = 4.
  01234567890123456789
0 ......r.rr....h..f.r
1 .f....r..hr....f.f..
2 ..f...r..r.tt.......
3 ....rr.......tr..f..
4 .r.rh.r.r..f........
5 h....r.fh.......f...
6 ..............rrf..r
7 ..r.r.rt...r..rr....
8 ....f.ttt...r..r.rr.

Turn = 8.
  01234567890123456789
0 ........rrr...r...r.
1 .rr.....rr.r..rf.r.r
2 ..f.......rr........
3 .......r....tt...f..
4 rr.r.rrr..rf..r.....
5 h....r..........f.r.
6 ....r...........f...
7 ......r..r.r..rr....
8 ...rr.rtt....r.rrrrr

Turn = 12.
  01234567890123456789
0 rr........r.....r.r.
1 .....rr.rrr..r.rr.r.
2 ..f.r.rr.....tr..r..
3 .....r......ttr.....
4 ..........r..rr..r.r
5 rr.r..........rrf...
6 ...............rf...
7 ...r...r.....r.r...r
8 r...rrr.t.....rrr..r

Turn = 16.
  01234567890123456789
0 ..r....rr...r.rrrr.r
1 ...rr...r...........
2 rr...........tt.....
3 .......r....ttt.....
4 ..r.rr.......ttrr..r
5 ..r...r.rrr...rrr...
6 ......r........rrr..
7 r............rrrrr..
8 rr......r.r....r.r..

*** Darwin 13x17 ***
Turn = 0.
  01234567890123456
0 .tt..........t...
1 ......fr.r.h.r..r
2 .........r.....f.
3 hh.f....t........
4 f...ht.f......h..
5 ..ff.........h.ft
6 hrf.....t...h....
7 hhfrr...r......hf
8 ...f.hht..tf.f...
9 .......h.........
0 .....h..........t
1 ..f.........f....
2 .ff.hhr.......fh.

*** Darwin 19x7 ***
Turn = 0.
  0123456
0 .....rh
1 hr..rfh
2 h..ffrr
3 h.htt..
4 ..rh.ft
5 fhf..t.
6 .h.f..r
7 .htfhf.
8 rh..fh.
9 .r..ttf
0 .t.ffr.
1 rhfrt..
2 ...h...
3 ..f..fh
4 .fr...h
5 t..t..t
6 thh.t..
7 ...r...
8 ......t

Turn = 8.
  0123456
0 r.r.rrr
1 .r..rr.
2 rr.r..r
3 rr....r
4 rrrr.r.
5 r...tt.
6 .ttt.t.
7 tttttt.
8 ....tt.
9 ...trrr
0 .tttttt
1 .tttt.t
2 .......
3 ....rr.
4 r....rr
5 rt.t..r
6 tt.tt..
7 ..r....
8 ......t

*** Darwin 15x20 ***
Turn = 0.
  01234567890123456789
0 ....................
1 ....................
2 .......f............
3 ....................
4 ....................
5 ....................
6 ....................
7 ....................
8 ....................
9 ....................
0 ....................
1 ....................
2 ....................
3 ....................
4 ....................

*** Darwin 11x6 ***
Turn = 0.
  012345
0 h.h..h
1 .trtft
2 r.rr..
3 tt.hhf
4 .htf..
5 ttttrf
6 frhfrh
7 fr.hf.
8 fth.rh
9 .thftt
0 .h.trh

*** Darwin 16x15 ***
Turn = 0.
  012345678901234
0 ...r.......r...
1 ...........t...
2 ............h..
3 ......h.....f..
4 ...............
5 ...............
6 ...............
7 ..r.........h..
8 ..........r....
9 .........h.....
0 f..r..rt.....t.
1 .....h...ft....
2 ...............
3 f.h.........t..
4 ..ff...........
5 ...r...........

*** Darwin 13x12 ***
Turn = 0.
  012345678901
0 ..rffr.r.ft.
1 h..fh.h...f.
2 ....f.rrft.f
3 thr...t..t.f
4 ...t.r..t.h.
5 .h..fhf.....
6 t....t..f.h.
7 frh.t.r.....
8 f.fr....hf.r
9 rh.t..hffh..
0 .trh.t....r.
1 rh.rhf...fhf
2 hft.frh.f..f

*** Darwin 19x16 ***
Turn = 0.
  0123456789012345
0 ........f.fttr..
1 hr.....h.t...t.f
2 ...rr.r..h......
3 ..t..t.h......rr
4 ..h.....ftt...hr
5 .r.h............
6 h....t..h...h...
7 ..t........h....
8 h....t.f.h..t.h.
9 t..f..h.hf......
0 .....th......r..
1 ..f.......rf.ht.
2 .....hrr....f...
3 .rt...fh.f.h..h.
4 .........f.t....
5 r.....rt..ft.f..
6 ...r....r....r..
7 .h.....th.....t.
8 .h...f.h.f......

*** Darwin 11x20 ***
Turn = 0.
  01234567890123456789
0 ....f...h........h..
1 ..........h........r
2 h.........f.......h.
3 .....r.......r......
4 ...f.r.............t
5 ....h.............f.
6 .....h.........r....
7 .......f.......ht...
8 ................f...
9 ....f...............
0 .....f.........h....

Turn = 7.
  01234567890123456789
0 ....f....hh......h..
1 ..........r.........
2 .......h....r......r
3 ....................
4 ...f........r.....tt
5 .........r........t.
6 h.......r...........
7 .......f.......tt...
8 ....h...........t...
9 ....f...............
0 .....f..h...........

Turn = 14.
  01234567890123456789
0 ....f...r........h..
1 .....r..............
2 ..............h....r
3 .........r........rt
4 ...f.............r.t
5 ..................t.
6 hr..................
7 .......f.......tt...
8 ....h...........t...
9 ....f...............
0 .....fh...r.........

*** Darwin 6x7 ***
Turn = 0.
  0123456
0 frtrtft
1 hrhf.tr
2 t.r..tf
3 .r..hh.
4 rrfrffr
5 rhtrtht

*** Darwin 19x14 ***
Turn = 0.
  01234567890123
0 ..............
1 ...r...f......
2 ..........h...
3 ..............
4 .........th...
5 ..h.........f.
6 ...f..........
7 ........f.....
8 ..............
9 .......h......
0 h.............
1 ..............
2 r...........ft
3 ..........r...
4 ..............
5 ...r.....f....
6 ...r....r...r.
7 ...r..h...f...
8 ....tff.hr....

*** Darwin 20x2 ***
Turn = 0.
  01
0 tr
1 hf
2 ff
3 .r
4 .f
5 .t
6 .r
7 t.
8 h.
9 ..
0 th
1 ..
2 f.
3 .r
4 ht
5 .r
6 fh
7 .r
8 hf
9 rr

*** Darwin 20x5 ***
Turn = 0.
  01234
0 r....
1 ..f.r
2 .....
3 .h...
4 t..tf
5 ....f
6 ..r..
7 ...rr
8 t.h.f
9 ...t.
0 r....
1 f....
2 .t..h
3 ...hr
4 ...f.
5 .h...
6 .rt.t
7 ...t.
8 ....r
9 .trh.
